^D:\GC2A22八巻大成\課題\CPP_KADAI\KADAI5\DATA.CPP|D:\GC2A22八巻大成\課題\CPP_KADAI\KADAI5\MAIN.CPP
D:\GC2A22八巻大成\課題\CPP_KADAI\KADAI5\X64\DEBUG\VC142.PDB
D:\GC2A22八巻大成\課題\CPP_KADAI\KADAI5\X64\DEBUG\VC142.IDB
D:\GC2A22八巻大成\課題\CPP_KADAI\KADAI5\X64\DEBUG\MAIN.OBJ
D:\GC2A22八巻大成\課題\CPP_KADAI\KADAI5\X64\DEBUG\DATA.OBJ
^D:\GC2A22八巻大成\課題\CPP_KADAI\KADAI5\DATA.CPP
D:\GC2A22八巻大成\課題\CPP_KADAI\KADAI5\X64\DEBUG\VC142.PDB
^D:\GC2A22八巻大成\課題\CPP_KADAI\KADAI5\MAIN.CPP
D:\GC2A22八巻大成\課題\CPP_KADAI\KADAI5\X64\DEBUG\VC142.PDB
