^D:\GC2A22八巻大成\課題\CPP_KADAI\KADAI5\X64\DEBUG\DATA.OBJ|D:\GC2A22八巻大成\課題\CPP_KADAI\KADAI5\X64\DEBUG\MAIN.OBJ
D:\GC2A22八巻大成\課題\CPP_KADAI\X64\DEBUG\KADAI5.ILK
D:\GC2A22八巻大成\課題\CPP_KADAI\X64\DEBUG\KADAI5.EXE
D:\GC2A22八巻大成\課題\CPP_KADAI\X64\DEBUG\KADAI5.PDB
