^D:\GC2A22八巻大成\課題\CPP_KADAI\課題７\DEBUG\MAIN.OBJ|D:\GC2A22八巻大成\課題\CPP_KADAI\課題７\DEBUG\STATUS.OBJ
/OUT:"D:\GC2A22八巻大成\課題\CPP_KADAI\課題７\DEBUG\課題７.EXE" /INCREMENTAL /NOLOGO KERNEL32.LIB USER32.LIB GDI32.LIB WINSPOOL.LIB COMDLG32.LIB ADVAPI32.LIB SHELL32.LIB OLE32.LIB OLEAUT32.LIB UUID.LIB ODBC32.LIB ODBCCP32.LIB /MANIFEST /MANIFESTUAC:"level='asInvoker' uiAccess='false'" /manifest:embed /DEBUG:FASTLINK /PDB:"D:\GC2A22八巻大成\課題\CPP_KADAI\課題７\DEBUG\課題７.PDB" /SUBSYSTEM:CONSOLE /TLBID:1 /DYNAMICBASE /NXCOMPAT /IMPLIB:"D:\GC2A22八巻大成\課題\CPP_KADAI\課題７\DEBUG\課題７.LIB" /MACHINE:X86 DEBUG\MAIN.OBJ
DEBUG\STATUS.OBJ
