^D:\GC2A22\C++KADAI\CPP_KADAI\課題１１設問２\ENEMY.CPP|D:\GC2A22\C++KADAI\CPP_KADAI\課題１１設問２\PLAYER.CPP
D:\GC2A22\C++KADAI\CPP_KADAI\課題１１設問２\DEBUG\VC142.PDB
D:\GC2A22\C++KADAI\CPP_KADAI\課題１１設問２\DEBUG\VC142.IDB
D:\GC2A22\C++KADAI\CPP_KADAI\課題１１設問２\DEBUG\PLAYER.OBJ
^D:\GC2A22八巻大成\課題\CPP_KADAI\課題１１設問２\ENEMY.CPP|D:\GC2A22八巻大成\課題\CPP_KADAI\課題１１設問２\PLAYER.CPP
D:\GC2A22八巻大成\課題\CPP_KADAI\課題１１設問２\DEBUG\VC142.PDB
D:\GC2A22八巻大成\課題\CPP_KADAI\課題１１設問２\DEBUG\VC142.IDB
D:\GC2A22八巻大成\課題\CPP_KADAI\課題１１設問２\DEBUG\PLAYER.OBJ
^D:\GC2A22八巻大成\課題\CPP_KADAI\課題１１設問２\PLAYER.CPP
D:\GC2A22八巻大成\課題\CPP_KADAI\課題１１設問２\DEBUG\PLAYER.OBJ
^D:\GC2A22八巻大成\課題\CPP_KADAI\課題１１設問２\ENEMY.CPP
D:\GC2A22八巻大成\課題\CPP_KADAI\課題１１設問２\DEBUG\VC142.PDB
D:\GC2A22八巻大成\課題\CPP_KADAI\課題１１設問２\DEBUG\VC142.IDB
D:\GC2A22八巻大成\課題\CPP_KADAI\課題１１設問２\DEBUG\ENEMY.OBJ
^C:\USERS\200541\ONEDRIVE - 東北電子専門学校\ドキュメント\C-KADAI\CPP_KADAI\課題１１設問２\MAIN1.CPP|C:\USERS\200541\ONEDRIVE - 東北電子専門学校\ドキュメント\C-KADAI\CPP_KADAI\課題１１設問２\PLAYER.CPP
C:\USERS\200541\ONEDRIVE - 東北電子専門学校\ドキュメント\C-KADAI\CPP_KADAI\課題１１設問２\DEBUG\VC142.PDB
C:\USERS\200541\ONEDRIVE - 東北電子専門学校\ドキュメント\C-KADAI\CPP_KADAI\課題１１設問２\DEBUG\VC142.IDB
C:\USERS\200541\ONEDRIVE - 東北電子専門学校\ドキュメント\C-KADAI\CPP_KADAI\課題１１設問２\DEBUG\PLAYER.OBJ
C:\USERS\200541\ONEDRIVE - 東北電子専門学校\ドキュメント\C-KADAI\CPP_KADAI\課題１１設問２\DEBUG\MAIN1.OBJ
^C:\USERS\200541\ONEDRIVE - 東北電子専門学校\ドキュメント\C-KADAI\CPP_KADAI\課題１１設問２\ENEMY.CPP|C:\USERS\200541\ONEDRIVE - 東北電子専門学校\ドキュメント\C-KADAI\CPP_KADAI\課題１１設問２\MAIN1.CPP
C:\USERS\200541\ONEDRIVE - 東北電子専門学校\ドキュメント\C-KADAI\CPP_KADAI\課題１１設問２\DEBUG\VC142.PDB
C:\USERS\200541\ONEDRIVE - 東北電子専門学校\ドキュメント\C-KADAI\CPP_KADAI\課題１１設問２\DEBUG\VC142.IDB
C:\USERS\200541\ONEDRIVE - 東北電子専門学校\ドキュメント\C-KADAI\CPP_KADAI\課題１１設問２\DEBUG\MAIN1.OBJ
C:\USERS\200541\ONEDRIVE - 東北電子専門学校\ドキュメント\C-KADAI\CPP_KADAI\課題１１設問２\DEBUG\ENEMY.OBJ
^C:\USERS\200541\ONEDRIVE - 東北電子専門学校\ドキュメント\C-KADAI\CPP_KADAI\課題１１設問２\ENEMY.CPP|C:\USERS\200541\ONEDRIVE - 東北電子専門学校\ドキュメント\C-KADAI\CPP_KADAI\課題１１設問２\MAIN1.CPP|C:\USERS\200541\ONEDRIVE - 東北電子専門学校\ドキュメント\C-KADAI\CPP_KADAI\課題１１設問２\PLAYER.CPP
C:\USERS\200541\ONEDRIVE - 東北電子専門学校\ドキュメント\C-KADAI\CPP_KADAI\課題１１設問２\DEBUG\VC142.PDB
C:\USERS\200541\ONEDRIVE - 東北電子専門学校\ドキュメント\C-KADAI\CPP_KADAI\課題１１設問２\DEBUG\VC142.IDB
C:\USERS\200541\ONEDRIVE - 東北電子専門学校\ドキュメント\C-KADAI\CPP_KADAI\課題１１設問２\DEBUG\MAIN1.OBJ
C:\USERS\200541\ONEDRIVE - 東北電子専門学校\ドキュメント\C-KADAI\CPP_KADAI\課題１１設問２\DEBUG\PLAYER.OBJ
C:\USERS\200541\ONEDRIVE - 東北電子専門学校\ドキュメント\C-KADAI\CPP_KADAI\課題１１設問２\DEBUG\ENEMY.OBJ
^C:\USERS\200541\ONEDRIVE - 東北電子専門学校\ドキュメント\C-KADAI\CPP_KADAI\課題１１設問２\ENEMY.CPP
C:\USERS\200541\ONEDRIVE - 東北電子専門学校\ドキュメント\C-KADAI\CPP_KADAI\課題１１設問２\DEBUG\VC142.PDB
^C:\USERS\200541\ONEDRIVE - 東北電子専門学校\ドキュメント\C-KADAI\CPP_KADAI\課題１１設問２\PLAYER.CPP
C:\USERS\200541\ONEDRIVE - 東北電子専門学校\ドキュメント\C-KADAI\CPP_KADAI\課題１１設問２\DEBUG\VC142.PDB
^C:\USERS\200541\ONEDRIVE - 東北電子専門学校\ドキュメント\C-KADAI\CPP_KADAI\課題１１設問２\MAIN1.CPP
C:\USERS\200541\ONEDRIVE - 東北電子専門学校\ドキュメント\C-KADAI\CPP_KADAI\課題１１設問２\DEBUG\VC142.PDB
^D:\GC2A22\C++KADAI\CPP_KADAI\課題１１設問２\ENEMY.CPP|D:\GC2A22\C++KADAI\CPP_KADAI\課題１１設問２\MAIN1.CPP|D:\GC2A22\C++KADAI\CPP_KADAI\課題１１設問２\PLAYER.CPP
D:\GC2A22\C++KADAI\CPP_KADAI\課題１１設問２\DEBUG\VC142.PDB
D:\GC2A22\C++KADAI\CPP_KADAI\課題１１設問２\DEBUG\VC142.IDB
D:\GC2A22\C++KADAI\CPP_KADAI\課題１１設問２\DEBUG\MAIN1.OBJ
D:\GC2A22\C++KADAI\CPP_KADAI\課題１１設問２\DEBUG\PLAYER.OBJ
D:\GC2A22\C++KADAI\CPP_KADAI\課題１１設問２\DEBUG\ENEMY.OBJ
^D:\GC2A22\C++KADAI\CPP_KADAI\課題１１設問２\ENEMY.CPP
D:\GC2A22\C++KADAI\CPP_KADAI\課題１１設問２\DEBUG\VC142.PDB
^D:\GC2A22\C++KADAI\CPP_KADAI\課題１１設問２\PLAYER.CPP
D:\GC2A22\C++KADAI\CPP_KADAI\課題１１設問２\DEBUG\VC142.PDB
^D:\GC2A22\C++KADAI\CPP_KADAI\課題１１設問２\MAIN1.CPP
D:\GC2A22\C++KADAI\CPP_KADAI\課題１１設問２\DEBUG\VC142.PDB
